{
    "KPlugin": {
        "Authors": [
            {
                "Email": "mart@kde.org",
                "Name": "Marco Martin",
                "Name[ar]": "Marco Martin",
                "Name[az]": "Marco Martin",
                "Name[bg]": "Марко Мартин",
                "Name[ca@valencia]": "Marco Martin",
                "Name[ca]": "Marco Martin",
                "Name[cs]": "Marco Martin",
                "Name[da]": "Marco Martin",
                "Name[de]": "Marco Martin",
                "Name[en_GB]": "Marco Martin",
                "Name[es]": "Marco Martin",
                "Name[eu]": "Marco Martin",
                "Name[fi]": "Marco Martin",
                "Name[fr]": "Marco Martin",
                "Name[hu]": "Marco Martin",
                "Name[ia]": "Marco Martin",
                "Name[id]": "Marco Martin",
                "Name[is]": "Marco Martin",
                "Name[it]": "Marco Martin",
                "Name[ja]": "Marco Martin",
                "Name[ka]": "მაკრო მარტინი",
                "Name[ko]": "Marco Martin",
                "Name[lt]": "Marco Martin",
                "Name[nl]": "Marco Martin",
                "Name[nn]": "Marco Martin",
                "Name[pa]": "ਮਾਰਕੋ ਮਾਰਟਿਨ",
                "Name[pl]": "Marco Martin",
                "Name[pt]": "Marco Martin",
                "Name[pt_BR]": "Marco Martin",
                "Name[ro]": "Marco Martin",
                "Name[ru]": "Marco Martin",
                "Name[sk]": "Marco Martin",
                "Name[sl]": "Marco Martin",
                "Name[sv]": "Marco Martin",
                "Name[ta]": "மார்க்கோ மார்ட்டின்",
                "Name[tr]": "Marco Martin",
                "Name[uk]": "Marco Martin",
                "Name[vi]": "Marco Martin",
                "Name[x-test]": "xxMarco Martinxx",
                "Name[zh_CN]": "Marco Martin"
            }
        ],
        "BugReportUrl": "https://bugs.kde.org/enter_bug.cgi?product=plasmashell&component=System%20Monitor",
        "Category": "System Information",
        "Description": "Displays a configurable chart of a system monitor sensor",
        "Description[ar]": "يعرض مخططًا قابلًا للتكوين لمتحسسات مراقبة النظام",
        "Description[az]": "Sistem monitoru sensorunun ayarlana bilən zolaqlarını göstərir",
        "Description[bg]": "Показва конфигурируема диаграма на сензор за системен монитор",
        "Description[ca@valencia]": "Mostra un diagrama configurable d'un sensor del monitor del sistema",
        "Description[ca]": "Mostra un diagrama configurable d'un sensor del monitor del sistema",
        "Description[da]": "Viser et konfigurerbart diagram over en systemovervågning-sensor",
        "Description[de]": "Zeigt ein anpassbares Diagramm eines Systemmonitor-Sensors an",
        "Description[en_GB]": "Displays a configurable chart of a system monitor sensor",
        "Description[es]": "Muestra un gráfico configurable de un sensor del monitor del sistema",
        "Description[eu]": "Sistema gainbegiratzeko sentsore baten diagrama konfiguragarri bat azaltzen du",
        "Description[fi]": "Näyttää mukautettavissa olevan kaavion järjestelmänvalvonnan anturista",
        "Description[fr]": "Affiche un graphique configurable du senseur de surveillance du système.",
        "Description[hu]": "Testre szabható szenzorokat megjelenítő elem",
        "Description[ia]": "Monstra un graphico configurabile de un sensor de supervision de systema",
        "Description[id]": "Menampilkan sebuah bagan yang bisa dikonfigurasi pada sebuah sensor pemantau sistem",
        "Description[it]": "Visualizza un grafico configurabile di un sensore di monitoraggio del sistema",
        "Description[ja]": "カスタム可能なシステムモニタセンサーのチャートを表示します",
        "Description[ko]": "설정 가능한 시스템 모니터 센서 차트 표시",
        "Description[lt]": "Rodo konfigūruojamą sistemos prižiūryklės jutiklio diagramą",
        "Description[nl]": "Toont een te configureren grafiek van een systeemmonitorsensor",
        "Description[nn]": "Viser eit tilpassbart diagram for ein systemovervakingssensor",
        "Description[pa]": "ਸਿਸਟਮ ਮਾਨੀਟਰ ਸੈਂਸਰ ਦੀ ਸੰਰਚਨਾ-ਯੋਗ ਚਾਰਟ ਦਿਖਾਉਂਦਾ ਹੈ",
        "Description[pl]": "Wyświetla wykres miernika monitora systemowego",
        "Description[pt]": "Mostra um gráfico configurável de um sensor de monitorização do sistema",
        "Description[pt_BR]": "Mostra um gráfico configurável do sensor do monitor do sistema",
        "Description[ro]": "Afișează un grafic configurabil al unui senzor de monitorizare a sistemului",
        "Description[ru]": "Настраиваемый график датчика системного монитора",
        "Description[sk]": "Zobrazuje konfigurovateľný graf senzoru monitorovania systému",
        "Description[sl]": "Prikaže nastavljiv grafikon sistemskega monitorja senzorja",
        "Description[sv]": "Visar ett anpassningsbart diagram av en systemövervakningssensor",
        "Description[ta]": "ஏதாவதொரு கணினி கண்காணிப்பு உணரியைக் காட்டும்",
        "Description[tr]": "Sistem monitörü sensörünün yapılandırılabilir bir grafiğini görüntüler",
        "Description[uk]": "Показує придатну до налаштовування діаграму на основі даних датчика нагляду за системою",
        "Description[vi]": "Hiển thị một biểu đồ cấu hình được của một cảm biến giám sát hệ thống",
        "Description[x-test]": "xxDisplays a configurable chart of a system monitor sensorxx",
        "Description[zh_CN]": "显示系统监视器的可配置图表",
        "FormFactors": [
            "desktop"
        ],
        "Icon": "ksysguardd",
        "Id": "org.kde.plasma.systemmonitor",
        "License": "GPL",
        "Name": "System monitor Sensor",
        "Name[ar]": "متحسس مراقبة النظام",
        "Name[az]": "Sistem İzləməsi Sensoru",
        "Name[bg]": "Сензор на системния монитор",
        "Name[ca@valencia]": "Sensor del monitor del sistema",
        "Name[ca]": "Sensor del monitor del sistema",
        "Name[cs]": "Senzor monitoru systému",
        "Name[da]": "Systemovervågning-sensor",
        "Name[de]": "Systemmonitor-Sensor",
        "Name[en_GB]": "System monitor Sensor",
        "Name[es]": "Sensor del monitor del sistema",
        "Name[et]": "Süsteemi jälgija sensor",
        "Name[eu]": "Sistema gainbegiratzeko sentsorea",
        "Name[fi]": "Järjestelmävalvonnan anturi",
        "Name[fr]": "Senseur de surveillance du système",
        "Name[hi]": "तंत्र परिवीक्षक सेंसर",
        "Name[hsb]": "Systemowy monitor - sensor",
        "Name[hu]": "Rendszermonitor-szenzor",
        "Name[ia]": "Sensor de Monitor (supervisor)  de systema",
        "Name[id]": "Sensor Pemantau Sistem",
        "Name[is]": "Skynjari kerfiseftirlits",
        "Name[it]": "Sensore Monitor di sistema",
        "Name[ja]": "システムモニタセンサー",
        "Name[ka]": "სისტემური მონიტორის სენსორი",
        "Name[ko]": "시스템 모니터 센서",
        "Name[lt]": "Sistemos prižiūryklės jutiklis",
        "Name[ml]": "സിസ്റ്റം നിരീക്ഷക സെൻസർ",
        "Name[nl]": "Systeemmonitorsensor",
        "Name[nn]": "System­overvakings­sensor",
        "Name[pa]": "ਸਿਸਟਮ ਮਾਨੀਟਰ ਸੈਂਸਰ",
        "Name[pl]": "Miernik monitora systemowego",
        "Name[pt]": "Sensor de monitorização do sistema",
        "Name[pt_BR]": "Sensor do monitor do sistema ",
        "Name[ro]": "Senzor de monitorizare a sistemului",
        "Name[ru]": "Датчик системного монитора",
        "Name[sk]": "Senzor monitorovania systému",
        "Name[sl]": "Sistemski nadzornik senzorja",
        "Name[sv]": "Systemövervakningssensor",
        "Name[ta]": "கணினி கண்காணிப்பு உணரி",
        "Name[tg]": "Назорати низом - Эҳсосгар",
        "Name[tr]": "Sistem izleme sensörü",
        "Name[uk]": "Датчик нагляду за системою",
        "Name[vi]": "Cảm biến giám sát hệ thống",
        "Name[x-test]": "xxSystem monitor Sensorxx",
        "Name[zh_CN]": "系统监视传感器",
        "Name[zh_TW]": "系統監視器感測器",
        "ServiceTypes": [
            "Plasma/Applet"
        ],
        "Version": "1.0",
        "Website": "https://www.kde.org/plasma-desktop"
    },
    "X-Plasma-API": "declarativeappletscript",
    "X-Plasma-MainScript": "ui/main.qml",
    "X-Plasma-Provides": [
        "org.kde.plasma.systemmonitor"
    ]
}
