{
    "KPlugin": {
        "Description": "Provides a user interface for hardware events",
        "Description[ar]": "يوفّر واجهة مستخدِم لأحداث العتاد",
        "Description[az]": "Avadanlıqlarla iş üçün istifadəçi interfeysini təqdim edir",
        "Description[bg]": "Предоставя потребителски интерфейс за хардуерни събития",
        "Description[ca@valencia]": "Proporciona una interfície d'usuari per als esdeveniments del maquinari",
        "Description[ca]": "Proporciona una interfície d'usuari per als esdeveniments del maquinari",
        "Description[cs]": "Poskytuje uživatelské rozhraní pro hardwarové události",
        "Description[da]": "Giver en brugerflade til hardware-hændelser",
        "Description[de]": "Stellt eine Benutzeroberfläche für Hardwareereignisse zur Verfügung",
        "Description[en_GB]": "Provides a user interface for hardware events",
        "Description[es]": "Proporciona una interfaz de usuario para eventos del hardware",
        "Description[eu]": "Hardware gertaerentzako erabiltzaile interfaze bat hornitzen du",
        "Description[fi]": "Tarjoaa käyttöliittymän laitteistotapahtumiin",
        "Description[fr]": "Fournit une interface utilisateur pour les évènements matériels",
        "Description[hu]": "Felhasználói felületet biztosít a hardvereseményekhez",
        "Description[ia]": "Il forni un interface de usator pro eventos hardware",
        "Description[id]": "Menyediakan antarmuka pengguna untuk peristiwa perangkat keras",
        "Description[is]": "Sér um grafískt notandaviðmót vegna vélbúnaðartengdra atburða",
        "Description[it]": "Fornisce un'interfaccia utente per gli eventi hardware",
        "Description[ja]": "ハードウェアイベントのためのユーザインターフェースを提供します",
        "Description[ko]": "하드웨어 이벤트 사용자 인터페이스 제공",
        "Description[lt]": "Suteikia naudotojo sąsają aparatinės įrangos įvykiams",
        "Description[nl]": "Levert een gebruikersinterface voor hardware gebeurtenissen",
        "Description[nn]": "Eit brukargrensesnitt for maskinvarehendingar",
        "Description[pa]": "ਹਾਰਡਵੇਅਰ ਈਵੈਂਟ ਲਈ ਵਰਤੋਂਕਾਰ ਇੰਟਰਫੇਸ ਦਿੰਦਾ ਹੈ",
        "Description[pl]": "Zapewnia interfejs dla zdarzeń związanych ze sprzętem",
        "Description[pt]": "Fornece uma interface de utilizador para os eventos do 'hardware'",
        "Description[pt_BR]": "Fornece uma interface de usuário para os eventos do hardware",
        "Description[ro]": "Furnizează o interfață cu utilizatorul pentru evenimente de echipament",
        "Description[ru]": "Обеспечивает пользовательский интерфейс для событий с оборудованием",
        "Description[sk]": "Poskytuje používateľské rozhranie pre hardvérové udalosti",
        "Description[sl]": "Ponuja uporabniški vmesnik za dogodke strojne opreme",
        "Description[sv]": "Tillhandahåller ett användargränssnitt för händelser i hårdvaran",
        "Description[ta]": "வன்பொருள் சார்ந்த நடப்புகளுக்கு பயனர் இடைமுகப்பை வழங்கும்",
        "Description[tr]": "Donanım etkinlikleri için kullanıcı arayüzü sunar",
        "Description[uk]": "Забезпечує роботу інтерфейсу користувача для подій, пов’язаних з обладнанням",
        "Description[vi]": "Cung cấp một giao diện người dùng cho các sự kiện phần cứng",
        "Description[x-test]": "xxProvides a user interface for hardware eventsxx",
        "Description[zh_CN]": "为硬件事件提供用户界面",
        "Name": "Hardware Detection",
        "Name[ar]": "اكتشاف العتاد",
        "Name[az]": "Avadanlığın aşkar edilməsi",
        "Name[bg]": "Разпознаване на хардуер",
        "Name[bs]": "Detekcija hardvera",
        "Name[ca@valencia]": "Detecció de maquinari",
        "Name[ca]": "Detecció de maquinari",
        "Name[cs]": "Detekce hardwaru",
        "Name[da]": "Hardware-detektion",
        "Name[de]": "Hardwareerkennung",
        "Name[el]": "Εντοπισμός υλικού",
        "Name[en_GB]": "Hardware Detection",
        "Name[es]": "Detección de hardware",
        "Name[et]": "Riistvara tuvastamine",
        "Name[eu]": "Hardware-detekzioa",
        "Name[fi]": "Laitteiston tunnistus",
        "Name[fr]": "Détection du matériel",
        "Name[gl]": "Detección de soporte físico",
        "Name[he]": "זיהוי חומרה",
        "Name[hi]": "हार्डवेयर का पता लगाना",
        "Name[hsb]": "Wotkrywanje gratow",
        "Name[hu]": "Hardverfelismerés",
        "Name[ia]": "Discoperta de Hardware",
        "Name[id]": "Deteksi Hardware",
        "Name[is]": "Vélbúnaðarskynjun",
        "Name[it]": "Rilevamento hardware",
        "Name[ja]": "ハードウェア検出",
        "Name[ka]": "აპარატურის გამოცნობა",
        "Name[ko]": "하드웨어 감지",
        "Name[lt]": "Aparatinės įrangos aptikimas",
        "Name[ml]": "ഹാർഡ്‍വെയർ കണ്ടെത്തല്‍",
        "Name[nb]": "Maskinvareoppdaging",
        "Name[nds]": "Reedschappen opdecken",
        "Name[nl]": "Hardware-detectie",
        "Name[nn]": "Maskinvareoppdaging",
        "Name[pa]": "ਹਾਰਡਵੇਅਰ ਖੋਜ",
        "Name[pl]": "Wykrywanie sprzętu",
        "Name[pt]": "Detecção do 'Hardware'",
        "Name[pt_BR]": "Detecção do hardware",
        "Name[ro]": "Detectare echipament",
        "Name[ru]": "Обнаружение оборудования",
        "Name[sk]": "Detekcia hardvéru",
        "Name[sl]": "Zaznavanje strojne opreme",
        "Name[sr@ijekavian]": "Откривање хардвера",
        "Name[sr@ijekavianlatin]": "Otkrivanje hardvera",
        "Name[sr@latin]": "Otkrivanje hardvera",
        "Name[sr]": "Откривање хардвера",
        "Name[sv]": "Hårdvarudetektering",
        "Name[ta]": "வன்பொருட்களை கண்டறிதல்",
        "Name[tr]": "Donanım Algılaması",
        "Name[uk]": "Виявлення обладнання",
        "Name[vi]": "Phát hiện phần cứng",
        "Name[x-test]": "xxHardware Detectionxx",
        "Name[zh_CN]": "硬件检测",
        "Name[zh_TW]": "硬體偵測"
    },
    "X-KDE-Kded-autoload": false,
    "X-KDE-Kded-load-on-demand": true
}
